{
  "page": 0,
  "numElements": 2,
  "totalPages": 120,
  "totalElements": 239,
  "elements": [
    {
      "classifications": [
        {
          "collection": [
            "NFDI4CHEM",
            "NFDI4ING",
            "NFDI4CAT",
            "Foundational Ontologies",
            "DataPLANT",
            "FAIRmat"
          ]
        },
        {
          "subject": [
            "General"
          ]
        }
      ],
      "creator": [
        "Alan Ruttenberg",
        "Albert Goldfain",
        "Barry Smith",
        "Bill Duncan",
        "Bjoern Peters",
        "Chris Mungall",
        "David Osumi-Sutherland",
        "Fabian Neuhaus",
        "Holger Stenzhorn",
        "James A. Overton",
        "Janna Hastings",
        "Jie Zheng",
        "Jonathan Bona",
        "Larry Hunter",
        "Leonard Jacuzzo",
        "Ludger Jansen",
        "Mark Ressler",
        "Mathias Brochhausen",
        "Mauricio Almeida",
        "Melanie Courtot",
        "Pierre Grenon",
        "Randall Dipert",
        "Ron Rudnicki",
        "Selja Seppälä",
        "Stefan Schulz",
        "Thomas Bittner",
        "Werner Ceusters",
        "Yongqun He"
      ],
      "definition": [
        "Please see the project site https://github.com/BFO-ontology/BFO, the bfo2 owl discussion group http://groups.google.com/group/bfo-owl-devel, the bfo2 discussion group http://groups.google.com/group/bfo-devel, the tracking google doc http://goo.gl/IlrEE, and the current version of the bfo2 reference http://purl.obolibrary.org/obo/bfo/dev/bfo2-reference.docx. This ontology is generated from a specification at https://github.com/BFO-ontology/BFO/tree/master/src/ontology/owl-group/specification/ and with the code that generates the OWL version in https://github.com/BFO-ontology/BFO/tree/master/src/tools/. A very early version of BFO version 2 in CLIF is at http://purl.obolibrary.org/obo/bfo/dev/bfo.clif.",
        "The BSD license on the BFO project site refers to code used to build BFO."
      ],
      "definition_property": [
        "http://purl.obolibrary.org/obo/IAO_0000115"
      ],
      "description": "The upper level ontology upon which OBO Foundry ontologies are built.",
      "exportsTo": [
        "tfsco",
        "msio",
        "t4fs",
        "nmrcv2025",
        "swo",
        "vibso",
        "modsci",
        "duo",
        "pco",
        "agro",
        "aeon",
        "stato",
        "vivo",
        "cto",
        "efo",
        "iao",
        "afo",
        "cheminf",
        "bco",
        "enm",
        "nmrcv",
        "proco",
        "chmo",
        "sepio",
        "oeo",
        "cco",
        "iofcore",
        "pmd",
        "mop",
        "envo",
        "envo2023",
        "envo2021",
        "obi",
        "pmat",
        "uberon",
        "cao",
        "ro",
        "to",
        "po",
        "flopo",
        "pato",
        "cob",
        "ppo",
        "peco",
        "ecso",
        "pso",
        "chiro",
        "gesah",
        "pror",
        "rxno",
        "m4i",
        "listdb",
        "gc"
      ],
      "homepage": "http://ifomis.org/bfo/",
      "imported": false,
      "importsFrom": [
        "iao",
        "uo",
        "dcterms"
      ],
      "iri": "http://purl.obolibrary.org/obo/bfo.owl",
      "isObsolete": false,
      "is_foundary": true,
      "language": [
        "en"
      ],
      "license": {
        "label": "CC-BY",
        "logo": "http://mirrors.creativecommons.org/presskit/buttons/80x15/png/by.png",
        "url": "http://creativecommons.org/licenses/by/4.0/"
      },
      "linkedEntities": {
        "http://ifomis.org/bfo": {
          "numAppearsIn": 1.0,
          "hasLocalDefinition": false,
          "type": [
            "individual",
            "entity"
          ],
          "label": [
            "bfo"
          ],
          "curie": "bfo"
        },
        "http://purl.obolibrary.org/obo/IAO_0000115": {
          "definedBy": [
            "uo",
            "iao"
          ],
          "numAppearsIn": 61.0,
          "hasLocalDefinition": true,
          "label": [
            "IAO_0000115"
          ],
          "curie": "IAO:0000115",
          "type": [
            "property",
            "annotationProperty",
            "entity"
          ]
        },
        "http://purl.obolibrary.org/obo/IAO_0000116": {
          "definedBy": [
            "iao"
          ],
          "numAppearsIn": 46.0,
          "hasLocalDefinition": true,
          "label": [
            "editor note"
          ],
          "curie": "IAO:0000116",
          "type": [
            "property",
            "annotationProperty",
            "entity"
          ]
        },
        "http://purl.org/dc/elements/1.1/contributor": {
          "numAppearsIn": 46.0,
          "hasLocalDefinition": true,
          "label": [
            "contributor"
          ],
          "curie": "contributor",
          "type": [
            "property",
            "annotationProperty",
            "entity"
          ]
        },
        "http://purl.org/dc/terms/license": {
          "definedBy": [
            "dcterms"
          ],
          "numAppearsIn": 119.0,
          "hasLocalDefinition": true,
          "label": [
            "License"
          ],
          "curie": "dcterms:license",
          "type": [
            "property",
            "objectProperty",
            "entity"
          ]
        },
        "http://www.w3.org/2000/01/rdf-schema#comment": {
          "definedBy": [
            "prov"
          ],
          "numAppearsIn": 59.0,
          "hasLocalDefinition": false,
          "label": [
            "comment"
          ],
          "curie": "comment",
          "type": [
            "property",
            "annotationProperty",
            "entity"
          ]
        },
        "http://www.w3.org/2000/01/rdf-schema#isDefinedBy": {
          "numAppearsIn": 31.0,
          "hasLocalDefinition": true,
          "label": [
            "isDefinedBy"
          ],
          "curie": "isDefinedBy",
          "type": [
            "property",
            "annotationProperty",
            "entity"
          ]
        },
        "http://www.w3.org/2000/01/rdf-schema#seeAlso": {
          "numAppearsIn": 29.0,
          "hasLocalDefinition": true,
          "label": [
            "seeAlso"
          ],
          "curie": "seeAlso",
          "type": [
            "property",
            "annotationProperty",
            "entity"
          ]
        },
        "http://xmlns.com/foaf/0.1/homepage": {
          "numAppearsIn": 41.0,
          "hasLocalDefinition": true,
          "label": [
            "homepage"
          ],
          "curie": "homepage",
          "type": [
            "property",
            "annotationProperty",
            "entity"
          ]
        },
        "http://xmlns.com/foaf/0.1/mbox": {
          "numAppearsIn": 24.0,
          "hasLocalDefinition": true,
          "label": [
            "mbox"
          ],
          "curie": "mbox",
          "type": [
            "property",
            "annotationProperty",
            "entity"
          ]
        },
        "https://github.com/BFO-ontology/BFO": {
          "url": "https://github.com/BFO-ontology/BFO",
          "source": "https://raw.githubusercontent.com/biopragmatics/bioregistry/main/exports/registry/registry.json",
          "curie": "github:BFO-ontology/BFO"
        },
        "mailto:bfo-owl-devel@googlegroups.com": {
          "numAppearsIn": 1.0,
          "hasLocalDefinition": false,
          "type": [
            "individual",
            "entity"
          ],
          "label": [
            "mailto:bfo-owl-devel@googlegroups.com"
          ],
          "curie": "mailto:bfo-owl-devel@googlegroups.com"
        }
      },
      "loaded": "2026-02-08T13:44:17.526278523",
      "mailingList": "https://groups.google.com/forum/#!forum/bfo-discuss",
      "numDescendants": 0.0,
      "numHierarchicalDescendants": 0.0,
      "numberOfClasses": "35",
      "numberOfEntities": "57",
      "numberOfIndividuals": "0",
      "numberOfProperties": "22",
      "ontologyId": "bfo",
      "ontologyPurl": "http://purl.obolibrary.org/obo/bfo.owl",
      "preferredPrefix": "BFO",
      "repo_url": "https://github.com/BFO-ontology/BFO",
      "searchableAnnotationValues": [
        "BFO 2 Reference: BFO does not claim to provide complete coverage of entities of all types. It seeks only to provide coverage of those entities studied by empirical science together with those entities which affect or are involved in human activities such as data processing and planning - coverage that is sufficiently broad to provide assistance to those engaged in building domain ontologies for purposes of data annotation.",
        false
      ],
      "sourceFileTimestamp": "Sun Feb 08 13:44:17 UTC 2026",
      "title": "Basic Formal Ontology",
      "tracker": "https://github.com/BFO-ontology/BFO/issues",
      "type": [
        "ontology"
      ],
      "versioned_url": "https://raw.githubusercontent.com/BFO-ontology/BFO/refs/heads/master/bfo_classes_only.owl",
      "http://purl.obolibrary.org/obo/IAO_0000116": [
        "BFO 2 Reference: BFO does not claim to provide complete coverage of entities of all types. It seeks only to provide coverage of those entities studied by empirical science together with those entities which affect or are involved in human activities such as data processing and planning - coverage that is sufficiently broad to provide assistance to those engaged in building domain ontologies for purposes of data annotation."
      ],
      "http://purl.org/dc/elements/1.1/contributor": [
        "Alan Ruttenberg",
        "Albert Goldfain",
        "Barry Smith",
        "Bill Duncan",
        "Bjoern Peters",
        "Chris Mungall",
        "David Osumi-Sutherland",
        "Fabian Neuhaus",
        "Holger Stenzhorn",
        "James A. Overton",
        "Janna Hastings",
        "Jie Zheng",
        "Jonathan Bona",
        "Larry Hunter",
        "Leonard Jacuzzo",
        "Ludger Jansen",
        "Mark Ressler",
        "Mathias Brochhausen",
        "Mauricio Almeida",
        "Melanie Courtot",
        "Pierre Grenon",
        "Randall Dipert",
        "Ron Rudnicki",
        "Selja Seppälä",
        "Stefan Schulz",
        "Thomas Bittner",
        "Werner Ceusters",
        "Yongqun \"Oliver\" He"
      ],
      "http://purl.org/dc/terms/license": "http://creativecommons.org/licenses/by/4.0/",
      "http://www.w3.org/1999/02/22-rdf-syntax-ns#type": "http://www.w3.org/2002/07/owl#Ontology",
      "http://www.w3.org/2000/01/rdf-schema#comment": [
        "Please see the project site https://github.com/BFO-ontology/BFO, the bfo2 owl discussion group http://groups.google.com/group/bfo-owl-devel, the bfo2 discussion group http://groups.google.com/group/bfo-devel, the tracking google doc http://goo.gl/IlrEE, and the current version of the bfo2 reference http://purl.obolibrary.org/obo/bfo/dev/bfo2-reference.docx. This ontology is generated from a specification at https://github.com/BFO-ontology/BFO/tree/master/src/ontology/owl-group/specification/ and with the code that generates the OWL version in https://github.com/BFO-ontology/BFO/tree/master/src/tools/. A very early version of BFO version 2 in CLIF is at http://purl.obolibrary.org/obo/bfo/dev/bfo.clif.",
        "The BSD license on the BFO project site refers to code used to build BFO."
      ],
      "http://www.w3.org/2000/01/rdf-schema#isDefinedBy": [
        "http://purl.obolibrary.org/obo/bfo/dev/bfo.clif",
        "https://github.com/BFO-ontology/BFO/tree/master/src/ontology/owl-group/specification/"
      ],
      "http://www.w3.org/2000/01/rdf-schema#seeAlso": [
        "http://groups.google.com/group/bfo-devel",
        "http://groups.google.com/group/bfo-discuss",
        "http://groups.google.com/group/bfo-owl-devel",
        "http://purl.obolibrary.org/obo/bfo/dev/owl",
        "https://github.com/BFO-ontology/BFO/tree/master/src/tools/"
      ],
      "http://www.w3.org/2002/07/owl#versionIRI": "http://purl.obolibrary.org/obo/bfo/2019-08-26/bfo.owl",
      "http://xmlns.com/foaf/0.1/homepage": [
        "http://basic-formal-ontology.org/",
        "http://ifomis.org/bfo",
        "https://github.com/BFO-ontology/BFO"
      ],
      "http://xmlns.com/foaf/0.1/mbox": "mailto:bfo-owl-devel@googlegroups.com"
    },
    {
      "allow_download": true,
      "baseUri": [
        "http://id.loc.gov/ontologies/bibframe/"
      ],
      "classifications": [
        {
          "collection": [
            "Miscellaneous"
          ]
        },
        {
          "subject": [
            "Computer Science"
          ]
        }
      ],
      "creator": [
        "http://id.loc.gov/vocabulary/organizations/dlc"
      ],
      "definition": [
        "The Bibframe vocabulary consists of RDF classes and properties used for the description of \r\n            items cataloged principally by libraries, but may also be used to describe items cataloged by museums and archives. \r\n            Classes include the three core classes - Work, Instance, and Item - in addition to many more \r\n            classes to support description. Properties describe characteristics of the resource being \r\n            described as well as relationships among resources. For example: one Work\r\n            might be a \"translation of\" another Work; an Instance may be an \r\n            \"instance of\" a particular Bibframe Work.  Other properties describe attributes of Works and Instances.  For\r\n            example: the Bibframe property \"subject\" expresses an important attribute of a Work \r\n            (what the Work is about), and the property \"extent\" (e.g. number of pages) expresses an\r\n            attribute of an Instance."
      ],
      "definition_property": [
        "http://www.w3.org/2004/02/skos/core#definition"
      ],
      "description": "The Bibframe vocabulary consists of RDF classes and properties used for the description of items cataloged principally by libraries, but may also be used to describe items cataloged by museums and archives. Classes include the three core classes - Work, Instance, and Item - in addition to many more classes to support description. Properties describe characteristics of the resource being described as well as relationships among resources. For example: one Work might be a \"translation of\" another Work; an Instance may be an \"instance of\" a particular Bibframe Work. Other properties describe attributes of Works and Instances. For example: the Bibframe property \"subject\" expresses an important attribute of a Work (what the Work is about), and the property \"extent\" (e.g. number of pages) expresses an attribute of an Instance.",
      "exportsTo": [
        "bflc",
        "modalia"
      ],
      "graph_format": "xml",
      "homepage": "https://www.loc.gov/bibframe/",
      "imported": false,
      "iri": "http://id.loc.gov/ontologies/bibframe/",
      "isObsolete": false,
      "is_foundary": false,
      "label": [
        "BIBFRAME vocabulary"
      ],
      "label_property": "http://www.w3.org/2000/01/rdf-schema#label",
      "language": [
        "en"
      ],
      "license": {
        "label": "CC0 1.0",
        "url": "https://creativecommons.org/publicdomain/zero/1.0/"
      },
      "linkedEntities": {
        "http://creativecommons.org/ns#license": {
          "definedBy": [
            "ccrel"
          ],
          "numAppearsIn": 15.0,
          "hasLocalDefinition": false,
          "label": [
            "cc_license"
          ],
          "curie": "cc:license",
          "type": [
            "property",
            "objectProperty",
            "entity"
          ]
        },
        "http://purl.org/dc/terms/creator": {
          "definedBy": [
            "dcterms"
          ],
          "numAppearsIn": 78.0,
          "hasLocalDefinition": false,
          "label": [
            "Creator"
          ],
          "curie": "dcterms:creator",
          "type": [
            "property",
            "objectProperty",
            "entity"
          ]
        },
        "http://purl.org/dc/terms/description": {
          "definedBy": [
            "dcterms"
          ],
          "numAppearsIn": 78.0,
          "hasLocalDefinition": false,
          "label": [
            "Description"
          ],
          "curie": "dcterms:description",
          "type": [
            "property",
            "annotationProperty",
            "entity"
          ]
        },
        "http://purl.org/dc/terms/issued": {
          "definedBy": [
            "dcterms"
          ],
          "numAppearsIn": 45.0,
          "hasLocalDefinition": false,
          "label": [
            "Date Issued"
          ],
          "curie": "dcterms:issued",
          "type": [
            "dataProperty",
            "property",
            "entity"
          ]
        },
        "http://purl.org/dc/terms/modified": {
          "definedBy": [
            "dcterms"
          ],
          "numAppearsIn": 58.0,
          "hasLocalDefinition": false,
          "label": [
            "Date Modified"
          ],
          "curie": "dcterms:modified",
          "type": [
            "dataProperty",
            "property",
            "entity"
          ]
        },
        "http://purl.org/dc/terms/publisher": {
          "definedBy": [
            "dcterms"
          ],
          "numAppearsIn": 40.0,
          "hasLocalDefinition": false,
          "label": [
            "Publisher"
          ],
          "curie": "dcterms:publisher",
          "type": [
            "property",
            "objectProperty",
            "entity"
          ]
        },
        "http://purl.org/dc/terms/rights": {
          "definedBy": [
            "dcterms"
          ],
          "numAppearsIn": 26.0,
          "hasLocalDefinition": false,
          "label": [
            "Rights"
          ],
          "curie": "dcterms:rights",
          "type": [
            "property",
            "objectProperty",
            "entity"
          ]
        },
        "http://www.w3.org/2000/01/rdf-schema#label": {
          "definedBy": [
            "prov"
          ],
          "numAppearsIn": 59.0,
          "hasLocalDefinition": false,
          "label": [
            "label"
          ],
          "curie": "label",
          "type": [
            "property",
            "annotationProperty",
            "entity"
          ]
        },
        "http://www.w3.org/2001/XMLSchema#dateTime": {
          "numAppearsIn": 2.0,
          "hasLocalDefinition": false,
          "type": [
            "class",
            "entity"
          ],
          "label": [
            "dateTime"
          ],
          "curie": "dateTime"
        },
        "http://www.w3.org/2004/02/skos/core#definition": {
          "definedBy": [
            "stw",
            "skos"
          ],
          "numAppearsIn": 40.0,
          "hasLocalDefinition": false,
          "label": [
            "definition"
          ],
          "curie": "definition",
          "type": [
            "property",
            "annotationProperty",
            "entity"
          ]
        },
        "https://github.com/lcnetdev/bibframe-ontology": {
          "url": "https://github.com/lcnetdev/bibframe-ontology",
          "source": "https://raw.githubusercontent.com/biopragmatics/bioregistry/main/exports/registry/registry.json",
          "curie": "github:lcnetdev/bibframe-ontology"
        }
      },
      "loaded": "2026-02-08T13:44:16.012804113",
      "numDescendants": 0.0,
      "numHierarchicalDescendants": 0.0,
      "numberOfClasses": "224",
      "numberOfEntities": "450",
      "numberOfIndividuals": "0",
      "numberOfProperties": "226",
      "ontologyId": "bf",
      "ontologyPurl": "http://id.loc.gov/ontologies/bibframe/",
      "preferredPrefix": "bf",
      "repo_url": "https://github.com/lcnetdev/bibframe-ontology",
      "searchableAnnotationValues": [
        "The Bibframe vocabulary consists of RDF classes and properties used for the description of \r\n            items cataloged principally by libraries, but may also be used to describe items cataloged by museums and archives. \r\n            Classes include the three core classes - Work, Instance, and Item - in addition to many more \r\n            classes to support description. Properties describe characteristics of the resource being \r\n            described as well as relationships among resources. For example: one Work\r\n            might be a \"translation of\" another Work; an Instance may be an \r\n            \"instance of\" a particular Bibframe Work.  Other properties describe attributes of Works and Instances.  For\r\n            example: the Bibframe property \"subject\" expresses an important attribute of a Work \r\n            (what the Work is about), and the property \"extent\" (e.g. number of pages) expresses an\r\n            attribute of an Instance.",
        false
      ],
      "skos": false,
      "sourceFileTimestamp": "Sun Feb 08 13:44:15 UTC 2026",
      "title": "BIBFRAME vocabulary",
      "tracker": "https://github.com/lcnetdev/bibframe-ontology/issues",
      "type": [
        "ontology"
      ],
      "versioned_url": "https://raw.githubusercontent.com/lcnetdev/bibframe-ontology/refs/heads/main/bibframe.rdf",
      "http://creativecommons.org/ns#license": "https://creativecommons.org/publicdomain/zero/1.0/",
      "http://purl.org/dc/terms/creator": "",
      "http://purl.org/dc/terms/description": "The Bibframe vocabulary consists of RDF classes and properties used for the description of \r\n            items cataloged principally by libraries, but may also be used to describe items cataloged by museums and archives. \r\n            Classes include the three core classes - Work, Instance, and Item - in addition to many more \r\n            classes to support description. Properties describe characteristics of the resource being \r\n            described as well as relationships among resources. For example: one Work\r\n            might be a \"translation of\" another Work; an Instance may be an \r\n            \"instance of\" a particular Bibframe Work.  Other properties describe attributes of Works and Instances.  For\r\n            example: the Bibframe property \"subject\" expresses an important attribute of a Work \r\n            (what the Work is about), and the property \"extent\" (e.g. number of pages) expresses an\r\n            attribute of an Instance.",
      "http://purl.org/dc/terms/issued": "2025-12-03T12:00:00.000-05:00",
      "http://purl.org/dc/terms/modified": "2025-12-03T15:18:46.134155754-05:00",
      "http://purl.org/dc/terms/publisher": "",
      "http://purl.org/dc/terms/rights": "https://creativecommons.org/publicdomain/zero/1.0/",
      "http://www.w3.org/1999/02/22-rdf-syntax-ns#type": "http://www.w3.org/2002/07/owl#Ontology",
      "http://www.w3.org/2000/01/rdf-schema#label": "BIBFRAME vocabulary",
      "http://www.w3.org/2002/07/owl#priorVersion": "http://id.loc.gov/ontologies/bibframe-3-0-0/",
      "http://www.w3.org/2002/07/owl#versionIRI": "http://id.loc.gov/ontologies/bibframe-3-0-1/",
      "http://www.w3.org/2002/07/owl#versionInfo": "3.0.1"
    }
  ],
  "facetFieldsToCounts": {}
}
